…
    ## Warning: There was 1 warning in `mutate()`.
    ## ℹ In argument: `Mass_g = as.numeric(Mass_g)`.
    ## Caused by warning:
    ## ! NAs introduced by coercion

``` r
saguaro_clean
```

    ## # A tibble: 1,212 × 16
    ##    trap_check_date  year month   day genus  species recapture sex   age   mass_g
    ##    <date>          <dbl> <dbl> <int> <chr>  <chr>   <chr>     <chr> <chr>  <dbl>
    ##  1 1991-03-15       1991     3    15 Chaet… penici… N         M     A       13  
    ##  2 1991-03-15       1991     3    15 Chaet… penici… N         M     A       16  
    ##  3 1991-03-15       1991     3    15 Chaet… penici… N         M     A       14.5
    ##  4 1991-03-15       1991     3    15 Chaet… penici… N         M     A       16  
    ##  5 1991-03-15       1991     3    15 Chaet… penici… N         M     A       14.5
    ##  6 1991-03-15       1991     3    15 Chaet… penici… N         M     A       15  
    ##  7 1991-03-15       1991     3    15 Chaet… penici… N         M     A       15  
    ##  8 1991-03-15       1991     3    15 Chaet… penici… N         M     A       16  
    ##  9 1991-03-15       1991     3    15 Chaet… penici… N         M     A       15  
    ## 10 1991-03-15       1991     3    15 Chaet… penici… N         M     A       17  
    ## # ℹ 1,202 more rows
    ## # ℹ 6 more variables: reprod_cond <chr>, web_trap_number <chr>, comments <chr>,
    ## #   rhf <dbl>, body <dbl>, tail <dbl>
…
orpi_clean <- orpi_data %>% 
  rename_with(tolower) %>% 
  select(1:3, 9:10) %>%
  rename(rodent_survey_id = rodentsurveyid,
         rodent_species_id = rodentspeciesid) %>% 
  left_join(orpi_species_codes, join_by(rodent_species_id)) %>% 
  left_join(orpi_surveys, join_by(rodent_survey_id))

orpi_clean
```

    ## # A tibble: 29,880 × 16
    ##        id rodent_survey_id rodent_species_id weight recapture species_code genus
    ##     <dbl>            <dbl>             <dbl>  <dbl>     <dbl> <chr>        <chr>
    ##  1 144775               22               112   NA           1 CHPE         Chae…
    ##  2 144776               22               119   NA           1 PEAM         Pero…
    ##  3 144777               22               115   30.6         0 DIME         Dipo…
    ##  4 144778               22               115   32.2         0 DIME         Dipo…
    ##  5 144779               22               115   40           0 DIME         Dipo…
    ##  6 144780               22               112   14.2         0 CHPE         Chae…
    ##  7 144781               22               112   NA           1 CHPE         Chae…
    ##  8 144782               22               115   43.8         0 DIME         Dipo…
    ##  9 144783               22               115   45.5         0 DIME         Dipo…
    ## 10 144784               22               115   41.8         0 DIME         Dipo…
    ## # ℹ 29,870 more rows
    ## # ℹ 9 more variables: species <chr>, family <chr>, site_id <dbl>,
    ## #   start_date <date>, end_date <date>, quadrat <dbl>, weather <chr>,
    ## #   notes <chr>, num_traps <dbl>
…
#adding period dates
period_durations <- trapping %>% 
  mutate(date = make_date(year = year,
                         month = month,
                         day = day)) %>% 
  select(4:9) %>% 
  group_by(period) %>% 
  summarize(start_date = min(date),
            end_date = max(date))
period_durations
```

    ## # A tibble: 524 × 3
    ##    period start_date end_date  
    ##     <int> <date>     <date>    
    ##  1      1 1977-07-16 1977-07-18
    ##  2      2 1977-08-19 1977-08-21
    ##  3      3 1977-09-11 1977-09-13
    ##  4      4 1977-10-16 1977-10-18
    ##  5      5 1977-11-12 1977-11-14
    ##  6      6 1977-12-10 1977-12-11
    ##  7      7 1978-01-08 1978-01-10
    ##  8      8 1978-02-18 1978-02-20
    ##  9      9 1978-03-11 1978-03-13
    ## 10     10 1978-04-08 1978-04-10
    ## # ℹ 514 more rows
…
