…
### Abundance Data

Summarize the survey data by year:

``` r
trap_nights <- orpi_surveys %>% 
  mutate(year = year(end_date),
         nights = end_date - start_date,
         trap_nights = num_traps * nights) %>% 
  group_by(year) %>% 
  summarize(trap_nights = as.numeric(sum(trap_nights)))
trap_nights
```

    ## # A tibble: 33 × 2
    ##     year trap_nights
    ##    <dbl>       <dbl>
    ##  1  1991         686
    ##  2  1992         686
    ##  3  1993        1519
    ##  4  1994        1225
    ##  5  1995        1666
    ##  6  1996        1666
    ##  7  1997        3332
    ##  8  1998        3835
    ##  9  1999        3550
    ## 10  2000        1666
    ## # ℹ 23 more rows
…
    ## `summarise()` has grouped output by 'year'. You can override using the
    ## `.groups` argument.

``` r
rodents_per_trapnight
```

    ## # A tibble: 290 × 5
    ## # Groups:   year [33]
    ##     year species      abundance trap_nights abund_per_trapnight
    ##    <dbl> <chr>            <int>       <dbl>               <dbl>
    ##  1  1991 albigula            28         686             0.0408 
    ##  2  1991 amplus              44         686             0.0641 
    ##  3  1991 arizonae             2         686             0.00292
    ##  4  1991 baileyi             10         686             0.0146 
    ##  5  1991 eremicus            43         686             0.0627 
    ##  6  1991 intermedius          4         686             0.00583
    ##  7  1991 merriami           107         686             0.156  
    ##  8  1991 penicillatus       265         686             0.386  
    ##  9  1992 albigula            44         686             0.0641 
    ## 10  1992 amplus              54         686             0.0787 
    ## # ℹ 280 more rows
…
``` r
biomass_annual <- rodents_per_trapnight %>% 
  inner_join(rodent_mass, join_by(species)) %>% 
  group_by(year, species) %>% 
  summarize(biomass_g = abund_per_trapnight * avg_mass_g)
```

    ## `summarise()` has grouped output by 'year'. You can override using the
    ## `.groups` argument.

``` r
biomass_annual
```

    ## # A tibble: 290 × 3
    ## # Groups:   year [33]
    ##     year species      biomass_g
    ##    <dbl> <chr>            <dbl>
    ##  1  1991 albigula        5.49  
    ##  2  1991 amplus          0.728 
    ##  3  1991 arizonae        0.254 
    ##  4  1991 baileyi         0.365 
    ##  5  1991 eremicus        1.09  
    ##  6  1991 intermedius     0.0743
    ##  7  1991 merriami        5.62  
    ##  8  1991 penicillatus    6.01  
    ##  9  1992 albigula        8.62  
    ## 10  1992 amplus          0.894 
    ## # ℹ 280 more rows
…
    ## Saving 7 x 5 in image

Calculating annual community biomass:

``` r
total_biomass_annual <- biomass_annual %>% 
  group_by(year) %>% 
  summarize(biomass_g = sum(biomass_g))
total_biomass_annual
```

    ## # A tibble: 33 × 2
    ##     year biomass_g
    ##    <dbl>     <dbl>
    ##  1  1991     19.6 
    ##  2  1992     29.4 
    ##  3  1993     29.9 
    ##  4  1994     31.4 
    ##  5  1995     20.5 
    ##  6  1996     19.3 
    ##  7  1997      4.33
    ##  8  1998      4.40
    ##  9  1999      7.09
    ## 10  2000     13.2 
    ## # ℹ 23 more rows
…
