…
    ## `summarise()` has grouped output by 'year'. You can override using the
    ## `.groups` argument.

``` r
rodents_per_trapnight
```

    ## # A tibble: 945 × 5
    ## # Groups:   year [45]
    ##     year species abundance effort abund_per_trapnight
    ##    <dbl> <chr>       <dbl>  <dbl>               <dbl>
    ##  1  1979 BA              0    147              0     
    ##  2  1979 DM             50    147              0.340 
    ##  3  1979 DO              8    147              0.0544
    ##  4  1979 DS             37    147              0.252 
    ##  5  1979 OL             12    147              0.0816
    ##  6  1979 OT             23    147              0.156 
    ##  7  1979 PB              0    147              0     
    ##  8  1979 PE              2    147              0.0136
    ##  9  1979 PF              2    147              0.0136
    ## 10  1979 PH              0    147              0     
    ## # ℹ 935 more rows
…
    ## Warning in right_join(., rodents_per_trapnight, join_by(species)): Detected an unexpected many-to-many relationship between `x` and `y`.
    ## ℹ Row 1 of `x` matches multiple rows in `y`.
    ## ℹ Row 1 of `y` matches multiple rows in `x`.
    ## ℹ If a many-to-many relationship is expected, set `relationship =
    ##   "many-to-many"` to silence this warning.

``` r
biomass_annual
```

    ## # A tibble: 430,920 × 5
    ##     year species avg_weight_g abund_per_trapnight biomass_g
    ##    <dbl> <chr>          <dbl>               <dbl>     <dbl>
    ##  1  1979 BA              9.45                   0         0
    ##  2  1980 BA              9.45                   0         0
    ##  3  1981 BA              9.45                   0         0
    ##  4  1982 BA              9.45                   0         0
    ##  5  1983 BA              9.45                   0         0
    ##  6  1984 BA              9.45                   0         0
    ##  7  1985 BA              9.45                   0         0
    ##  8  1986 BA              9.45                   0         0
    ##  9  1987 BA              9.45                   0         0
    ## 10  1988 BA              9.45                   0         0
    ## # ℹ 430,910 more rows
…
    ## Saving 7 x 5 in image

Calculating annual community biomass:

``` r
total_biomass_annual <- biomass_annual %>% 
  group_by(year) %>% 
  summarize(biomass_g = sum(biomass_g))
total_biomass_annual
```

    ## # A tibble: 45 × 2
    ##     year biomass_g
    ##    <dbl>     <dbl>
    ##  1  1979    30221.
    ##  2  1980    39126.
    ##  3  1981    42286.
    ##  4  1982    62625.
    ##  5  1983    58381.
    ##  6  1984    29069.
    ##  7  1985    38417.
    ##  8  1986    37442.
    ##  9  1987    52204.
    ## 10  1988    24619.
    ## # ℹ 35 more rows
…
