…
    ## `summarise()` has grouped output by 'year'. You can override using the
    ## `.groups` argument.
    ## Joining with `by = join_by(year)`

``` r
rodents_per_trapnight
```

    ## # A tibble: 80 × 6
    ## # Groups:   year [18]
    ##     year species      abundance nights trap_nights abund_per_trapnight
    ##    <dbl> <chr>            <int>  <int>       <dbl>               <dbl>
    ##  1  1991 albigula             3      2         296             0.0101 
    ##  2  1991 amplus               3      2         296             0.0101 
    ##  3  1991 baileyi              1      2         296             0.00338
    ##  4  1991 eremicus             1      2         296             0.00338
    ##  5  1991 merriami            21      2         296             0.0709 
    ##  6  1991 penicillatus        23      2         296             0.0777 
    ##  7  1992 albigula             1      2         296             0.00338
    ##  8  1992 amplus               2      2         296             0.00676
    ##  9  1992 baileyi             14      2         296             0.0473 
    ## 10  1992 merriami            38      2         296             0.128  
    ## # ℹ 70 more rows
…
``` r
biomass_annual <- rodents_per_trapnight %>% 
  inner_join(rodent_mass, join_by(species)) %>% 
  group_by(year, species) %>% 
  summarize(biomass_g = abund_per_trapnight * avg_mass_g)
```

    ## `summarise()` has grouped output by 'year'. You can override using the
    ## `.groups` argument.

``` r
biomass_annual
```

    ## # A tibble: 80 × 3
    ## # Groups:   year [18]
    ##     year species      biomass_g
    ##    <dbl> <chr>            <dbl>
    ##  1  1991 albigula        1.59  
    ##  2  1991 amplus          0.125 
    ##  3  1991 baileyi         0.0991
    ##  4  1991 eremicus        0.0577
    ##  5  1991 merriami        2.78  
    ##  6  1991 penicillatus    1.47  
    ##  7  1992 albigula        0.531 
    ##  8  1992 amplus          0.0832
    ##  9  1992 baileyi         1.39  
    ## 10  1992 merriami        5.02  
    ## # ℹ 70 more rows
…
